{
  "data": [
    {
      "id": 1,
      "clavecct": "23ACB0001E",
      "nombrect": "DIRECCION GENERAL DE COLEGIO DE BACHILLERES",
      "nombre_completo": "DIRECCION GENERAL DE COLEGIO DE BACHILLERES T/M",
      "turno": {
        "id": 1,
        "abreviatura": "T/M",
        "nombre": "Matutino"
      },
      "nivel_ed": {
        "ID_NIVEL_ED": 2,
        "CVENIVEL": "ACB",
        "ID_NIVEL": "K",
        "NIVEL": "ADMINISTRATIVO",
        "MODALIDAD": "DIRECCION GRAL COLEGIO DE BACHILLERES",
        "TIPO_EDUC": "BACHILLERES",
        "SOSTENIM": "GOBIERNO",
        "ID_SERV": "66",
        "MODGRAL": "BACHILLERES",
        "MOSTRAR_APP": "S",
        "CVE_ESTATUS": 1
      },
      "zona_escolar": "",
      "supervisor": null
    },
    { ... }
    {
      "id": 20,
      "clavecct": "23AGS0004Y",
      "nombrect": "PERSONAL COMISIONADO AL SINDICATO DE MAESTROS",
      "nombre_completo": "PERSONAL COMISIONADO AL SINDICATO DE MAESTROS T/TC",
      "turno": {
        "id": 8,
        "abreviatura": "T/TC",
        "nombre": "Continuo (7:00 - 22:00)"
      },
      "nivel_ed": {
        "ID_NIVEL_ED": 8,
        "CVENIVEL": "AGS",
        "ID_NIVEL": "K",
        "NIVEL": "ADMINISTRATIVO",
        "MODALIDAD": "COMISIONADO AL SINDICATO",
        "TIPO_EDUC": "ADMINISTRATIVO",
        "SOSTENIM": "GOBIERNO",
        "ID_SERV": "20",
        "MODGRAL": "SEYC",
        "MOSTRAR_APP": "N",
        "CVE_ESTATUS": 1
      },
      "zona_escolar": "",
      "supervisor": null
    }
  ],
  "meta": {
    "status": 200,
    "msg": "OK",
    "errors": [],
    "current_page": 1,
    "from": 1,
    "last_page": 243,
    "path": "http://api.seyc.app/api/v1/centros-de-trabajo",
    "per_page": 20,
    "to": 20,
    "total": 4856
  },
  "links": {
    "first": "http://api.seyc.app/api/v1/centros-de-trabajo?page=1",
    "last": "http://api.seyc.app/api/v1/centros-de-trabajo?page=243",
    "prev": null,
    "next": "http://api.seyc.app/api/v1/centros-de-trabajo?page=2"
  }
}