{
  "data": {
    "centroTrabajo": {
      "id": 637,
      "clavecct": "23DIN0033T",
      "nombrect": "JUSTO SIERRA",
      "nombre_completo": "JUSTO SIERRA T/D",
      "turno": {
        "id": 4,
        "abreviatura": "T/D",
        "nombre": "Discontinuo"
      },
      "nivel_ed": {
        "ID_NIVEL_ED": 45,
        "CVENIVEL": "DIN",
        "ID_NIVEL": "A",
        "NIVEL": "INICIAL INDIGENA",
        "MODALIDAD": "CENTRO DE EDUCACION INICIAL INDIGENA",
        "TIPO_EDUC": "INICIAL INDIGENA",
        "SOSTENIM": "GOBIERNO",
        "ID_SERV": "1",
        "MODGRAL": "INDIGENA",
        "MOSTRAR_APP": "S",
        "CVE_ESTATUS": 1
      },
      "zona_escolar": "105"
    },
    "plantilla": [
      {
        "id": 6910,
        "persona": 5915,
        "cct": "23DIN0033T",
        "t_usuario": {
          "id": 5912,
          "cruge_user": 5915,
          "rfc_temp": null,
          "usuario_dato": {
            "usuario": 5912,
            "rfc": "TAUC741002A51",
            "curp": "TAUC741002MQRMHC07",
            "primer_apellido": "TAMAYO",
            "segundo_apellido": "UH",
            "nombre": "CECILIA",
            "foto": "http://sarh.seq.gob.mx/fotos/TAUC741002A51.jpg"
          }
        }
      }
    ],
    "total": 1
  }
}