{
  "data": {
    "responsable": {
      "id": 597,
      "usuario": 17303,
      "cct": "23DPR0024R",
      "turno": "1",
      "rfc_responsable_ct": "LOOC6210257X2",
      "datos_responsable": {
        "usuario": 306,
        "rfc": "LOOC6210257X2",
        "curp": "LOOC621025HQRPSR07",
        "primer_apellido": "LOPEZ",
        "segundo_apellido": "OSORIO",
        "nombre": "CARLOS ADAN",
        "no_nomina": 409,
        "telefono": "",
        "clave_enomina": "409",
        "telefono_particular": null,
        "telefono_celular": "(983) 117-8649",
        "domicilio_calle": null,
        "domicilio_numero_exterior": null,
        "domicilio_colonia": null,
        "domicilio_codigo_postal": null,
        "domicilio_municipio": null,
        "domicilio_entidad_federativa": null,
        "foto": "http://sarh.seq.gob.mx/fotos/LOOC6210257X2.jpg"
      }
    }
  },
  "meta": {
    "status": 200,
    "msg": "OK",
    "errors": []
  }
}